<svg width="46" height="46" viewBox="0 0 46 46" fill="none" xmlns="http://www.w3.org/2000/svg">
<path d="M40.6786 0H5.32143C4.04271 0 2.81636 0.513923 1.91216 1.42871C1.00797 2.3435 0.5 3.58422 0.5 4.87793L0.5 40.6494C0.5 41.9431 1.00797 43.1838 1.91216 44.0986C2.81636 45.0134 4.04271 45.5273 5.32143 45.5273H19.1077V30.0491H12.7796V22.7637H19.1077V17.211C19.1077 10.8951 22.8242 7.40632 28.5165 7.40632C31.2426 7.40632 34.0933 7.89818 34.0933 7.89818V14.0972H30.9523C27.8576 14.0972 26.8923 16.0403 26.8923 18.0331V22.7637H33.801L32.6961 30.0491H26.8923V45.5273H40.6786C41.9573 45.5273 43.1836 45.0134 44.0878 44.0986C44.992 43.1838 45.5 41.9431 45.5 40.6494V4.87793C45.5 3.58422 44.992 2.3435 44.0878 1.42871C43.1836 0.513923 41.9573 0 40.6786 0Z" fill="white"/>
</svg>
